﻿Вид;Код раздела;Раздел;Порядковый номер;Код;Наименование
Т;01;Лучевая терапия;01;T01.001;Дистанционная лучевая терапия: (наружное облучение)
Т;01;Лучевая терапия;02;T01.002;Дистанционная гамма-терапия
Т;01;Лучевая терапия;03;T01.003;3D конформная лучевая терапия
Т;01;Лучевая терапия;04;T01.004;Лучевая  терапия с модуляцией интенсивности (IMRT)
Т;01;Лучевая терапия;05;T01.005;Лучевая терапия с визуальным сопровождением (IGRT)
Т;01;Лучевая терапия;06;T01.006;Стереотаксическая лучевая терапия (SBRT)
Т;01;Лучевая терапия;07;T01.007;Арк-терапия с модуляцией по объему (VMAT)
Т;01;Лучевая терапия;08;T01.008;Брахитерапия: (внутриполостное облучение)
Т;01;Лучевая терапия;09;T01.009;Сочетанная лучевая терапия:(дистанционная лучевая терапия+брахитерапия)
Т;01;Лучевая терапия;10;T01.010;Близкофокусная рентгенотерапия
Т;01;Лучевая терапия;11;T01.011;Радикальная лучевая терапия
Т;01;Лучевая терапия;12;T01.012;Паллиативная лучевая терапия
Т;01;Лучевая терапия;13;T01.013;Симптоматическая лучевая терапия
Т;01;Лучевая терапия;14;T01.014;Лучевая терапия в самостоятельном плане
Т;01;Лучевая терапия;15;T01.015;Лучевая терапия в комбинации с хирургическим лечениеm(комбинированная)
Т;01;Лучевая терапия;16;T01.016;Лучевая терапия  в сочетании химио и/или гормонотерапией(комплексная)
Т;02;Химиотерапия;01;T02.001;Неадьювантная химиотерапия предоперационная
Т;02;Химиотерапия;02;T02.002;Адьювантная терапия послеоперационная
Т;02;Химиотерапия;03;T02.003;Паллиативная химиотерапия
Т;02;Химиотерапия;04;T02.004;Лечебная химиотерапия
Т;03;Экстракорпоральные и трансфузиологические методы лечения;01;T03.001;Острый гемодиализ
Т;03;Экстракорпоральные и трансфузиологические методы лечения;02;T03.002;Хронический программный гемодиализ
Т;03;Экстракорпоральные и трансфузиологические методы лечения;03;T03.003;Перитонеальный диализ
Т;03;Экстракорпоральные и трансфузиологические методы лечения;04;T03.004;Плазмаферез
Т;03;Экстракорпоральные и трансфузиологические методы лечения;05;T03.005;Плазмофильтрация
Т;03;Экстракорпоральные и трансфузиологические методы лечения;06;T03.006;Гемофильтрация крови
Т;03;Экстракорпоральные и трансфузиологические методы лечения;07;T03.007;Ультрафильтрация крови
Т;03;Экстракорпоральные и трансфузиологические методы лечения;08;T03.008;Гемотрансфузия
Т;03;Экстракорпоральные и трансфузиологические методы лечения;09;T03.009;Реинфузия крови
